%YAML 1.1
%TAG !u! tag:unity3d.com,2011:
--- !u!74 &7400000
AnimationClip:
  m_ObjectHideFlags: 0
  m_CorrespondingSourceObject: {fileID: 0}
  m_PrefabInstance: {fileID: 0}
  m_PrefabAsset: {fileID: 0}
  m_Name: Antorcha
  serializedVersion: 6
  m_Legacy: 0
  m_Compressed: 0
  m_UseHighQualityCurve: 1
  m_RotationCurves: []
  m_CompressedRotationCurves: []
  m_EulerCurves: []
  m_PositionCurves: []
  m_ScaleCurves: []
  m_FloatCurves: []
  m_PPtrCurves:
  - curve:
    - time: 0
      value: {fileID: 21300000, guid: 832c1455a39a9414d95d5c558320d022, type: 3}
    - time: 0.083333336
      value: {fileID: 21300000, guid: 6f7f31b6f4402ba458457f4ac05197ed, type: 3}
    - time: 0.16666667
      value: {fileID: 21300000, guid: b75503d061ad7b841bee261e1d812a68, type: 3}
    - time: 0.25
      value: {fileID: 21300000, guid: 47338c241ce7c194aa6b1b148fac58f2, type: 3}
    - time: 0.33333334
      value: {fileID: 21300000, guid: e703413943f3b7c40803f5e503d3e1d9, type: 3}
    - time: 0.41666666
      value: {fileID: 21300000, guid: cedc88bdd71af4c4fbbbcdd3300c1961, type: 3}
    - time: 0.5
      value: {fileID: 21300000, guid: f5daacd46e314164d9d6bb02acfc85fc, type: 3}
    - time: 0.5833333
      value: {fileID: 21300000, guid: 15aca3c2e40bd724899b39cb308821d5, type: 3}
    - time: 0.6666667
      value: {fileID: 21300000, guid: 15aca3c2e40bd724899b39cb308821d5, type: 3}
    attribute: m_Sprite
    path: 
    classID: 212
    script: {fileID: 0}
  m_SampleRate: 60
  m_WrapMode: 0
  m_Bounds:
    m_Center: {x: 0, y: 0, z: 0}
    m_Extent: {x: 0, y: 0, z: 0}
  m_ClipBindingConstant:
    genericBindings:
    - serializedVersion: 2
      path: 0
      attribute: 0
      script: {fileID: 0}
      typeID: 212
      customType: 23
      isPPtrCurve: 1
    pptrCurveMapping:
    - {fileID: 21300000, guid: 832c1455a39a9414d95d5c558320d022, type: 3}
    - {fileID: 21300000, guid: 6f7f31b6f4402ba458457f4ac05197ed, type: 3}
    - {fileID: 21300000, guid: b75503d061ad7b841bee261e1d812a68, type: 3}
    - {fileID: 21300000, guid: 47338c241ce7c194aa6b1b148fac58f2, type: 3}
    - {fileID: 21300000, guid: e703413943f3b7c40803f5e503d3e1d9, type: 3}
    - {fileID: 21300000, guid: cedc88bdd71af4c4fbbbcdd3300c1961, type: 3}
    - {fileID: 21300000, guid: f5daacd46e314164d9d6bb02acfc85fc, type: 3}
    - {fileID: 21300000, guid: 15aca3c2e40bd724899b39cb308821d5, type: 3}
    - {fileID: 21300000, guid: 15aca3c2e40bd724899b39cb308821d5, type: 3}
  m_AnimationClipSettings:
    serializedVersion: 2
    m_AdditiveReferencePoseClip: {fileID: 0}
    m_AdditiveReferencePoseTime: 0
    m_StartTime: 0
    m_StopTime: 0.68333334
    m_OrientationOffsetY: 0
    m_Level: 0
    m_CycleOffset: 0
    m_HasAdditiveReferencePose: 0
    m_LoopTime: 1
    m_LoopBlend: 0
    m_LoopBlendOrientation: 0
    m_LoopBlendPositionY: 0
    m_LoopBlendPositionXZ: 0
    m_KeepOriginalOrientation: 0
    m_KeepOriginalPositionY: 1
    m_KeepOriginalPositionXZ: 0
    m_HeightFromFeet: 0
    m_Mirror: 0
  m_EditorCurves: []
  m_EulerEditorCurves: []
  m_HasGenericRootTransform: 0
  m_HasMotionFloatCurves: 0
  m_Events: []
